…
### Selecting variables (columns) with `select`


```r
surveys %>% select(species, plot_id, species_id)
```

```
## # A tibble: 34,786 × 3
##     species plot_id species_id
##       <chr>   <int>      <chr>
## 1  albigula       2         NL
## 2  albigula       2         NL
## 3  albigula       2         NL
## 4  albigula       2         NL
## 5  albigula       2         NL
## 6  albigula       2         NL
## 7  albigula       2         NL
## 8  albigula       2         NL
## 9  albigula       2         NL
## 10 albigula       2         NL
## # ... with 34,776 more rows
```

### Selecting observations (rows) with `filter`


```r
surveys %>% filter(year == 1995)
```

```
## # A tibble: 1,180 × 13
##    record_id month   day  year plot_id species_id   sex hindfoot_length
##        <int> <int> <int> <int>   <int>      <chr> <chr>           <int>
## 1      22314     6     7  1995       2         NL     M              34
## 2      22728     9    23  1995       2         NL     F              32
## 3      22899    10    28  1995       2         NL     F              32
## 4      23032    12     2  1995       2         NL     F              33
## 5      22003     1    11  1995       2         DM     M              37
## 6      22042     2     4  1995       2         DM     F              36
## 7      22044     2     4  1995       2         DM     M              37
## 8      22105     3     4  1995       2         DM     F              37
## 9      22109     3     4  1995       2         DM     M              37
## 10     22168     4     1  1995       2         DM     M              36
## # ... with 1,170 more rows, and 5 more variables: weight <int>,
## #   genus <chr>, species <chr>, taxa <chr>, plot_type <chr>
```
…
### Adding variables with `mutate`


```r
surveys %>%
    mutate(weight_kg = weight / 1000) %>%
    select(species, year, weight, weight_kg) 
```

```
## # A tibble: 34,786 × 4
##     species  year weight weight_kg
##       <chr> <int>  <int>     <dbl>
## 1  albigula  1977     NA        NA
## 2  albigula  1977     NA        NA
## 3  albigula  1977     NA        NA
## 4  albigula  1977     NA        NA
## 5  albigula  1977     NA        NA
## 6  albigula  1977     NA        NA
## 7  albigula  1977     NA        NA
## 8  albigula  1978     NA        NA
## 9  albigula  1978    218     0.218
## 10 albigula  1978     NA        NA
## # ... with 34,776 more rows
```



```r
surveys %>%
  filter(!is.na(weight)) %>%
    mutate(weight_kg = weight / 1000) %>%
    select(species, year, weight, weight_kg) 
```

```
## # A tibble: 32,283 × 4
##     species  year weight weight_kg
##       <chr> <int>  <int>     <dbl>
## 1  albigula  1978    218     0.218
## 2  albigula  1978    204     0.204
## 3  albigula  1978    200     0.200
## 4  albigula  1978    199     0.199
## 5  albigula  1978    197     0.197
## 6  albigula  1978    218     0.218
## 7  albigula  1979    166     0.166
## 8  albigula  1979    184     0.184
## 9  albigula  1979    206     0.206
## 10 albigula  1979    274     0.274
## # ... with 32,273 more rows
```
…
You can also group by multiple columns:


```r
surveys %>%
  group_by(sex, species_id) %>%
  summarize(mean_weight = mean(weight, na.rm = TRUE))
```

```
## Source: local data frame [92 x 3]
## Groups: sex [?]
## 
##      sex species_id mean_weight
##    <chr>      <chr>       <dbl>
## 1      F         BA     9.16129
## 2      F         DM    41.60968
## 3      F         DO    48.53125
## 4      F         DS   117.74955
## 5      F         NL   154.28221
## 6      F         OL    31.06582
## 7      F         OT    24.83090
## 8      F         OX    21.00000
## 9      F         PB    30.21088
## 10     F         PE    22.82218
## # ... with 82 more rows
```
…
```r
surveys %>%
  filter(!is.na(weight)) %>%
  group_by(sex, species_id) %>%
  summarize(mean_weight = mean(weight))
```

```
## Source: local data frame [64 x 3]
## Groups: sex [?]
## 
##      sex species_id mean_weight
##    <chr>      <chr>       <dbl>
## 1      F         BA     9.16129
## 2      F         DM    41.60968
## 3      F         DO    48.53125
## 4      F         DS   117.74955
## 5      F         NL   154.28221
## 6      F         OL    31.06582
## 7      F         OT    24.83090
## 8      F         OX    21.00000
## 9      F         PB    30.21088
## 10     F         PE    22.82218
## # ... with 54 more rows
```
…
```r
surveys %>%
  filter(!is.na(weight)) %>%
  group_by(sex, species_id) %>%
  summarize(mean_weight = mean(weight)) %>%
  print(n = 15)
```

```
## Source: local data frame [64 x 3]
## Groups: sex [?]
## 
##      sex species_id mean_weight
##    <chr>      <chr>       <dbl>
## 1      F         BA    9.161290
## 2      F         DM   41.609685
## 3      F         DO   48.531250
## 4      F         DS  117.749548
## 5      F         NL  154.282209
## 6      F         OL   31.065817
## 7      F         OT   24.830904
## 8      F         OX   21.000000
## 9      F         PB   30.210884
## 10     F         PE   22.822183
## 11     F         PF    7.974394
## 12     F         PH   30.850000
## 13     F         PL   19.312500
## 14     F         PM   22.125668
## 15     F         PP   17.180670
## # ... with 49 more rows
```
Once the data are grouped, you can also summarize multiple variables at the same
time (and not necessarily on the same variable). For instance, we could add a
column indicating the minimum weight for each species for each sex:


```r
surveys %>%
  filter(!is.na(weight)) %>%
  group_by(sex, species_id) %>%
  summarize(mean_weight = mean(weight),
            min_weight = min(weight))
```

```
## Source: local data frame [64 x 4]
## Groups: sex [?]
## 
##      sex species_id mean_weight min_weight
##    <chr>      <chr>       <dbl>      <int>
## 1      F         BA     9.16129          6
## 2      F         DM    41.60968         10
## 3      F         DO    48.53125         12
## 4      F         DS   117.74955         45
## 5      F         NL   154.28221         32
## 6      F         OL    31.06582         10
## 7      F         OT    24.83090          5
## 8      F         OX    21.00000         20
## 9      F         PB    30.21088         12
## 10     F         PE    22.82218         11
## # ... with 54 more rows
```
…
<!---

```
## # A tibble: 5 × 2
##                   plot_type     n
##                       <chr> <int>
## 1                   Control 15611
## 2  Long-term Krat Exclosure  5118
## 3          Rodent Exclosure  4233
## 4 Short-term Krat Exclosure  5906
## 5         Spectab exclosure  3918
```

```
## # A tibble: 25 × 4
##    species_id mean_hindfoot_length min_hindfoot_length max_hindfoot_length
##         <chr>                <dbl>               <int>               <int>
## 1          AH             33.00000                  31                  35
## 2          BA             13.00000                   6                  16
## 3          DM             35.98235                  16                  50
## 4          DO             35.60755                  26                  64
## 5          DS             49.94887                  39                  58
## 6          NL             32.29423                  21                  70
## 7          OL             20.53261                  12                  39
## 8          OT             20.26741                  13                  50
## 9          OX             19.12500                  13                  21
## 10         PB             26.11592                   2                  47
## # ... with 15 more rows
```

```
## Source: local data frame [27 x 4]
## Groups: year [26]
## 
##     year     genus     species weight
##    <int>     <chr>       <chr>  <int>
## 1   1977 Dipodomys spectabilis    149
## 2   1978   Neotoma    albigula    232
## 3   1978   Neotoma    albigula    232
## 4   1979   Neotoma    albigula    274
## 5   1980   Neotoma    albigula    243
## 6   1981   Neotoma    albigula    264
## 7   1982   Neotoma    albigula    252
## 8   1983   Neotoma    albigula    256
## 9   1984   Neotoma    albigula    259
## 10  1985   Neotoma    albigula    225
## # ... with 17 more rows
```
…
