…
You can group by multiple columns too:


```r
surveys %>%
  group_by(sex, species_id) %>%
  summarize(mean_weight = mean(weight, na.rm = TRUE))
```

```
## Source: local data frame [92 x 3]
## Groups: sex [?]
## 
##       sex species_id mean_weight
##    <fctr>     <fctr>       <dbl>
## 1                 AB         NaN
## 2                 AH         NaN
## 3                 AS         NaN
## 4                 BA         NaN
## 5                 CB         NaN
## 6                 CM         NaN
## 7                 CQ         NaN
## 8                 CS         NaN
## 9                 CT         NaN
## 10                CU         NaN
## # ... with 82 more rows
```

Looks like most of these species were never weighed. We could then discard rows
where `mean_weight` is `NaN` (`NaN` refers to "Not a Number") using `filter()`:


```r
surveys %>%
  group_by(sex, species_id) %>%
  summarize(mean_weight = mean(weight, na.rm = TRUE)) %>%
  filter(!is.nan(mean_weight))
```

```
## Source: local data frame [64 x 3]
## Groups: sex [3]
## 
##       sex species_id mean_weight
##    <fctr>     <fctr>       <dbl>
## 1                 DM    38.28571
## 2                 DO    50.66667
## 3                 DS   120.00000
## 4                 NL   167.68750
## 5                 OL    29.00000
## 6                 OT    21.20000
## 7                 PB    30.60000
## 8                 PE    17.66667
## 9                 PF     6.00000
## 10                PI    18.00000
## # ... with 54 more rows
```
…
You can also summarize multiple variables at the same time:


```r
surveys %>%
  group_by(sex, species_id) %>%
  summarize(mean_weight = mean(weight, na.rm = TRUE),
            min_weight = min(weight, na.rm = TRUE)) %>%
  filter(!is.nan(mean_weight))
```

```
## Source: local data frame [64 x 4]
## Groups: sex [3]
## 
##       sex species_id mean_weight min_weight
##    <fctr>     <fctr>       <dbl>      <int>
## 1                 DM    38.28571         24
## 2                 DO    50.66667         44
## 3                 DS   120.00000         78
## 4                 NL   167.68750         83
## 5                 OL    29.00000         21
## 6                 OT    21.20000         18
## 7                 PB    30.60000         20
## 8                 PE    17.66667         17
## 9                 PF     6.00000          4
## 10                PI    18.00000         18
## # ... with 54 more rows
```
…
